<?xml version="1.0" standalone="no"?>
<!DOCTYPE svg PUBLIC "-//W3C//DTD SVG 1.1//EN" "http://www.w3.org/Graphics/SVG/1.1/DTD/svg11.dtd">
<svg xmlns="http://www.w3.org/2000/svg">
<metadata>Copyright (C) 2015 by original authors @ fontello.com</metadata>
<defs>
<font id="fontello" horiz-adv-x="1000" >
<font-face font-family="fontello" font-weight="400" font-stretch="normal" units-per-em="1000" ascent="850" descent="-150" />
<missing-glyph horiz-adv-x="1000" />
<glyph glyph-name="phone-squared" unicode="&#xe800;" d="m714 184q0 6-1 9-1 5-21 17t-50 27l-29 16q-3 2-11 8t-14 8-12 3q-10 0-26-18t-32-37-24-18q-4 0-9 2t-9 3-9 6-8 4q-56 31-95 71t-71 95q-1 2-5 8t-5 9-4 9-2 9q0 8 12 19t25 21 25 23 11 20q0 5-2 12t-9 14-7 10q-2 4-8 16t-14 25-15 27-14 23-9 10-9 1q-27 0-56-13-26-11-45-52t-19-73q0-9 1-19t3-17 5-19 6-16 7-18 6-17q33-92 121-179t178-121q4-1 17-6t19-7 16-5 18-5 17-3 19-2q32 0 73 19t53 45q12 30 12 56z m143 434v-536q0-66-47-113t-114-48h-535q-67 0-114 48t-47 113v536q0 66 47 113t114 48h535q67 0 114-48t47-113z" horiz-adv-x="857.1" />
<glyph glyph-name="docs" unicode="&#xe801;" d="m946 636q23 0 38-16t16-38v-678q0-23-16-38t-38-16h-535q-23 0-38 16t-16 38v160h-303q-23 0-38 16t-16 38v375q0 22 11 49t27 42l228 228q15 16 42 27t49 11h232q23 0 38-16t16-38v-183q38 23 71 23h232z m-303-119l-167-167h167v167z m-357 214l-167-167h167v167z m109-361l176 176v233h-214v-233q0-22-15-38t-38-15h-233v-357h286v143q0 22 11 49t27 42z m534-449v643h-215v-232q0-22-15-38t-38-15h-232v-358h500z" horiz-adv-x="1000" />
<glyph glyph-name="doc-text" unicode="&#xe802;" d="m819 638q16-16 27-42t11-50v-642q0-23-15-38t-38-16h-750q-23 0-38 16t-16 38v892q0 23 16 38t38 16h500q22 0 49-11t42-27z m-248 136v-210h210q-5 16-12 23l-175 175q-6 7-23 12z m215-853v572h-232q-23 0-38 15t-16 38v233h-429v-858h715z m-572 483q0 7 5 12t13 5h393q8 0 13-5t5-12v-36q0-8-5-13t-13-5h-393q-8 0-13 5t-5 13v36z m411-125q8 0 13-5t5-13v-36q0-8-5-13t-13-5h-393q-8 0-13 5t-5 13v36q0 8 5 13t13 5h393z m0-143q8 0 13-5t5-13v-36q0-8-5-13t-13-5h-393q-8 0-13 5t-5 13v36q0 8 5 13t13 5h393z" horiz-adv-x="857.1" />
<glyph glyph-name="angle-double-right" unicode="&#xe803;" d="m332 314q0-7-6-13l-260-260q-5-5-12-5t-13 5l-28 28q-6 6-6 13t6 13l219 219-219 220q-6 5-6 12t6 13l28 28q5 6 13 6t12-6l260-260q6-5 6-13z m214 0q0-7-5-13l-260-260q-6-5-13-5t-13 5l-28 28q-5 6-5 13t5 13l219 219-219 220q-5 5-5 12t5 13l28 28q6 6 13 6t13-6l260-260q5-5 5-13z" horiz-adv-x="571.4" />
<glyph glyph-name="angle-double-up" unicode="&#xe804;" d="m600 118q0-7-6-13l-28-28q-5-5-12-5t-13 5l-220 219-219-219q-5-5-13-5t-13 5l-27 28q-6 6-6 13t6 13l260 260q5 5 12 5t13-5l260-260q6-6 6-13z m0 214q0-7-6-13l-28-28q-5-5-12-5t-13 5l-220 220-219-220q-5-5-13-5t-13 5l-27 28q-6 6-6 13t6 13l260 260q5 6 12 6t13-6l260-260q6-6 6-13z" horiz-adv-x="642.9" />
<glyph glyph-name="angle-double-down" unicode="&#xe805;" d="m600 368q0-7-6-13l-260-260q-5-6-13-6t-12 6l-260 260q-6 6-6 13t6 13l27 28q6 5 13 5t13-5l219-220 220 220q5 5 13 5t12-5l28-28q6-6 6-13z m0 214q0-7-6-13l-260-260q-5-5-13-5t-12 5l-260 260q-6 6-6 13t6 13l27 28q6 5 13 5t13-5l219-220 220 220q5 5 13 5t12-5l28-28q6-6 6-13z" horiz-adv-x="642.9" />
<glyph glyph-name="angle-double-left" unicode="&#xe806;" d="m350 82q0-7-6-13l-28-28q-5-5-12-5t-13 5l-260 260q-6 6-6 13t6 13l260 260q5 6 13 6t12-6l28-28q6-5 6-13t-6-12l-219-220 219-219q6-6 6-13z m214 0q0-7-5-13l-28-28q-6-5-13-5t-13 5l-260 260q-6 6-6 13t6 13l260 260q6 6 13 6t13-6l28-28q5-5 5-13t-5-12l-220-220 220-219q5-6 5-13z" horiz-adv-x="571.4" />
<glyph glyph-name="chat-empty" unicode="&#xe807;" d="m393 636q-85 0-160-29t-118-79-44-107q0-45 30-88t83-73l54-32-19-46q19 11 34 21l25 18 30-6q43-8 85-8 85 0 159 29t118 79 44 106-44 107-118 79-159 29z m0 71q106 0 197-38t143-104 53-144-53-143-143-104-197-38q-48 0-98 9-70-49-155-72-21-5-48-9h-2q-6 0-12 5t-6 12q-1 1-1 3t1 4 1 3l1 3t2 3 2 3 3 3 2 2q3 3 13 14t15 16 12 17 14 21 11 25q-69 40-108 98t-40 125q0 78 53 144t143 104 197 38z m459-652q5-14 11-25t14-21 13-16 14-17 13-14q0 0 2-2t3-3 2-3 2-3l1-3t1-3 1-4-1-3q-2-8-7-13t-13-4q-27 4-48 9-85 23-155 72-50-9-98-9-151 0-263 74 32-3 49-3 90 0 172 25t148 72q69 52 107 119t37 141q0 43-13 85 72-39 114-99t42-128q0-67-40-126t-108-98z" horiz-adv-x="1000" />
<glyph glyph-name="chat" unicode="&#xe808;" d="m786 421q0-77-53-143t-143-104-197-38q-48 0-98 9-70-49-155-72-21-5-48-9h-2q-6 0-12 5t-6 12q-1 1-1 3t1 4 1 3l1 3t2 3 2 3 3 3 2 2q3 3 13 14t15 16 12 17 14 21 11 25q-69 40-108 98t-40 125q0 78 53 144t143 104 197 38 197-38 143-104 53-144z m214-142q0-67-40-126t-108-98q5-14 11-25t14-21 13-16 14-17 13-14q0 0 2-2t3-3 2-3 2-3l1-3t1-3 1-4-1-3q-2-8-7-13t-13-4q-27 4-48 9-85 23-155 72-50-9-98-9-151 0-263 74 32-3 49-3 90 0 172 25t148 72q69 52 107 119t37 141q0 43-13 85 72-39 114-99t42-128z" horiz-adv-x="1000" />
<glyph glyph-name="attach" unicode="&#xe809;" d="m244-140q-102 0-170 72-72 70-74 166t84 190l496 496q80 80 174 54 44-12 79-47t47-79q26-96-54-176l-474-474q-40-40-88-46-48-4-80 28-30 24-27 74t47 92l332 334q24 26 50 0t0-50l-332-332q-44-44-20-70 12-8 24-6 24 4 46 26l474 474q50 50 34 108-16 60-76 76-54 14-108-36l-494-494q-66-76-64-143t52-117q50-48 117-50t141 62l496 494q24 24 50 0 26-22 0-48l-496-496q-82-82-186-82z" horiz-adv-x="939" />
<glyph glyph-name="phone" unicode="&#xe80a;" d="m786 158q0-15-6-39t-12-38q-11-28-68-60-52-28-103-28-16 0-30 2t-32 7-26 8-31 11-28 10q-54 20-97 47-72 44-148 120t-120 148q-27 43-46 97-2 5-10 28t-12 31-8 26-7 32-2 29q0 52 29 104 31 56 59 68 14 6 38 12t39 6q8 0 12-2 10-3 30-43 6-10 16-30t20-35 17-30q2-2 10-14t12-20 4-16q0-11-16-28t-35-30-34-30-16-25q0-5 3-13t4-11 8-14 7-10q42-77 97-132t131-97q1 0 10-6t14-8 11-5 13-2q10 0 25 15t30 35 31 35 28 16q7 0 15-4t20-12 14-10q14-8 30-17t35-20 31-17q39-19 42-29 2-4 2-12z" horiz-adv-x="785.7" />
<glyph glyph-name="help" unicode="&#xe80b;" d="m494 740q86-62 86-184 0-64-42-124-12-20-88-80l-46-30q-40-34-48-60-6-16-8-44 0-14-16-14l-128 0q-16 0-16 12 4 98 28 124 16 22 48 48t56 42l24 14q22 16 34 34 28 44 28 70 0 40-26 78-28 36-92 36-68 0-94-44-28-42-28-92l-166 0q6 162 114 232 70 42 166 42 130 0 214-60z m-216-636q44 0 73-30t27-74q-2-46-32-73t-74-25q-44 0-73 29t-27 75 32 73 74 25z" horiz-adv-x="580" />
<glyph glyph-name="floppy" unicode="&#xe80c;" d="m658 750l142-156 0-544q0-40-29-70t-71-30l-600 0q-40 0-70 30t-30 70l0 600q0 42 30 71t70 29l558 0z m-58-300l0 250-400 0 0-250q0-20 15-35t35-15l300 0q20 0 35 15t15 35z m-50 200l0-200-100 0 0 200 100 0z" horiz-adv-x="800" />
<glyph glyph-name="mail" unicode="&#xe80d;" d="m929 11v428q-18-20-39-37-149-114-238-188-28-24-46-38t-48-27-57-13h-2q-26 0-57 13t-48 27-46 38q-88 74-238 188-21 17-39 37v-428q0-8 6-13t12-5h822q7 0 12 5t6 13z m0 586v14t-1 7-1 7-3 5-5 4-8 2h-822q-7 0-12-6t-6-12q0-94 82-159 108-85 224-177 4-2 20-16t25-21 25-18 28-15 24-5h2q11 0 24 5t28 15 25 18 25 21 20 16q116 92 224 177 30 24 56 65t26 73z m71 21v-607q0-37-26-63t-63-27h-822q-36 0-63 27t-26 63v607q0 37 26 63t63 26h822q37 0 63-26t26-63z" horiz-adv-x="1000" />
<glyph glyph-name="mail-alt" unicode="&#xe80e;" d="m1000 454v-443q0-37-26-63t-63-27h-822q-36 0-63 27t-26 63v443q25-28 56-49 202-137 278-192 32-24 51-37t53-27 61-13h2q28 0 61 13t53 27 51 37q95 68 278 192 32 22 56 49z m0 164q0-44-27-84t-68-69q-210-146-262-181-5-4-23-17t-30-22-29-18-33-15-27-5h-2q-12 0-27 5t-33 15-29 18-30 22-23 17q-51 35-147 101t-114 80q-35 23-65 64t-31 77q0 43 23 72t66 29h822q36 0 62-26t27-63z" horiz-adv-x="1000" />
<glyph glyph-name="basket" unicode="&#xe80f;" d="m357-7q0-30-21-51t-50-21-51 21-21 51 21 50 51 21 50-21 21-50z m500 0q0-30-21-51t-50-21-51 21-21 51 21 50 51 21 50-21 21-50z m72 607v-286q0-13-9-23t-23-12l-583-68q1-4 3-12t3-15 1-13q0-8-13-35h513q15 0 26-11t10-25-10-25-26-11h-571q-14 0-25 11t-11 25q0 8 6 22t17 33 11 21l-98 460h-114q-15 0-25 10t-11 25 11 26 25 10h143q9 0 16-3t11-9 7-14 4-15 3-16 3-14h670q14 0 25-11t11-25z" horiz-adv-x="928.6" />
<glyph glyph-name="cloud" unicode="&#xe810;" d="m0 257q-2 44 10 86t35 78 57 64 77 45q77 30 156 13 36 81 111 130t166 49q62 0 118-25t97-64 65-98 25-118q0-9-2-27 1 0 3 1t3 1q81 31 159-3t110-116q20-55 12-108t-43-97-88-64q-37-14-73-14h-718v0q-86 0-158 49t-103 130q-17 43-19 88z" horiz-adv-x="1205.1" />
<glyph glyph-name="icq" unicode="&#xe811;" d="m355 823c-31 7-57 4-84-10-29-18-46-47-53-86-7-41 0-80 21-120l10-14-34 11c-42 10-82 4-121-17-41-21-66-50-83-91-16-40-15-78 5-113 9-16 21-28 33-37 17-17 38-27 63-31l10-3-21-18c-20-17-31-38-38-59-7-26-4-51 10-75 7-11 14-21 25-28 11-10 25-17 42-18 31-7 64-7 99 4l-25-42-7-19c-15-45-10-84 11-125 10-16 21-30 32-43 17-15 38-25 64-32 42-11 84-10 125 11 40 21 65 55 78 98l1 8c27-30 52-49 80-56 29-9 57-7 82 10 24 14 41 38 50 67 7 31 7 62 0 97 14-9 28-16 45-21 45-14 84-12 124 9 38 21 63 55 76 99 11 42 8 83-13 122l-7 11c-11 17-22 34-39 46-14 9-31 16-47 24 44 21 75 50 89 88 10 31 7 57-7 82l0 3c-17 28-40 46-75 56-21 5-45 5-66 3l-47-10 16 36c14 45 10 88-14 129l-4 7c-22 36-53 57-95 68-44 11-84 7-124-14-39-21-68-54-80-96l0-3-2-10-5 10-14 26c-23 35-51 56-86 66z m359-85c7-14 11-31 11-49l-4-31c-5-16-13-30-21-42l-127-156c-13 10-27 17-41 24l-14 160-1 56 1 14c7 28 27 50 52 64 26 14 54 17 81 7 29-7 50-23 63-47z m-437-28c1 25 11 42 28 52 9 7 21 7 33 2 25-8 46-26 63-61 7-14 14-28 17-45l28-167-21-7-125 137-7 14c-12 26-19 50-16 75z m-76-165l38-15 124-91c-11-14-18-28-22-42l-204-25-14 2c-25 5-42 16-53 37-11 21-11 42-3 64 10 26 28 47 55 59 25 14 51 18 79 11z m134-230l10-28 4-10c-21-18-37-35-54-51l-42-35-11-7c-27-13-50-17-74-14-21 1-38 8-45 21l-4 16 3 12c7 21 25 43 58 58 17 7 31 14 42 17l113 21z m440 229c25 11 49 14 74 11 24-3 41-14 50-31l5-18-2-15c-10-25-31-45-67-60-14-7-29-10-46-13l-174-21-2 10-3 4 5 7 143 119 17 7z m-360-134c17 15 40 25 66 25 26 0 50-10 65-25 20-20 29-41 29-67s-9-49-29-66c-18-18-39-28-65-28-26 0-49 10-66 28-18 17-28 41-28 66s10 47 28 67z m33-205c2-48 7-98 14-153l0-57-2-14c-10-25-26-46-52-58-25-14-52-17-77-10-29 7-50 24-61 47-7 14-13 31-13 48l7 32c3 14 10 28 22 40l118 141c14-7 28-14 44-16z m108 19l59-61 37-45 7-14c13-24 20-47 17-74-3-25-11-43-28-50-10-7-21-7-33-6-26 7-48 28-63 62l-17 47-21 122 24 9 18 10z m64 87l159 14 56 1 14-1c22-7 41-20 53-41 14-15 21-36 21-60l-4-29c-7-28-24-49-48-60-26-14-51-17-79-7-17 4-29 11-38 22l-148 123 9 21 5 17z" horiz-adv-x="981" />
<glyph glyph-name="cloud-1" unicode="&#xe812;" d="m1435 132q0-111-75-193t-186-89v-1h-870v1q-7-1-21-1-117 0-200 83t-83 200q0 74 37 139t101 103q-8 32-8 62 0 117 83 200t200 83q103 0 186-70 43 91 129 146t185 54q144 0 246-102t102-246q0-55-16-103 85-29 138-103t52-163z" horiz-adv-x="1435" />
</font>
</defs>
</svg>